My Website: Intro Guide to Programming in R
…
I recommend typing your code in the R-script window as this allows you to make edits and corrections to your code

When installing packages, the package name must be enclosed in quotations and parentheses

Always make sure your parentheses and quotation marks have and opening and closing. Forgetting to close a parenthesis or quotation will result in an error. The easiest way to avoid this error is making sure your parentheses and quotation marks are closed before adding any text to them. You can also turn on rainbow parentheses in settings by going to code in the menu bar and then selecting rainbow parentheses.

Managing Data

In this section I want to discuss and demonstrate some ways to manage data using the tidyverse package and janitor package. The tidyverse package has several other packages within it that I will be using throughout the rest of the website (mainly dplyr, tibble, and ggplot2). The janitor package will be used to help us clean up variable names as necessary.

Step 1: Lets make sure all the packages we will need are installed at the beginning so they will be easy to find later. The tidyverse and janitor packages will help us to manage and visualize our data, and the owidR package is where I will be accessing all of the data I want to use. This data comes from Our World in Data: Mental Health Data.

Below I am using the search function from the owidR package to find a dataset of interset. Then, I am assigning the dataset of interest to the name substancedisorder. Next, I am viewing the raw dataset and turning it into a tibble so that it is easier for R to work with since this is a very large dataset.

# A tibble: 6,468 x 4
   entity    code   year `Prevalence - Mental and substance use disor
   <chr>     <chr> <int>                                         <dbl>
 1 Afghanis AFG    1990                                          17.6
 2 Afghanis AFG    1991                                          17.8
 3 Afghanis AFG    1992                                          18.1
 4 Afghanis AFG    1993                                          18.3
 5 Afghanis AFG    1994                                          18.4
 6 Afghanis AFG    1995                                          18.5
 7 Afghanis AFG    1996                                          18.5
 8 Afghanis AFG    1997                                          18.5
 9 Afghanis AFG    1998                                          18.4
10 Afghanis AFG    1999                                          18.4
#  with 6,458 more rows
…
using dyplr to isolate data (filter, select, arrange, %>%)

Use select to extract columns

Use filter to: extract rows

Use arrange to: move important rows to the top of the data frame (table)

First, we want to rename the prevalence variable from our substance disoder data set because right now it is unnecessarily long. We are going to do this with the janitor package that is very helpful in cleaning names. The janitor packages removes all unique characters and replaces spaces with "_". Then we are going to rename using dyplyr to make the name shorter and more convenient. I use a pipe (%>%) here to make this a little easier, and I will describe more how pipes work later.

Example 1: use select to extract entity (country) column.

r template:  select(data-frame, column-name) r code: select(substancedisorder, entity)

# A tibble: 6,468 x 1
   entity     
   <chr>      
 1 Afghanistan
 2 Afghanistan
 3 Afghanistan
 4 Afghanistan
 5 Afghanistan
 6 Afghanistan
 7 Afghanistan
 8 Afghanistan
 9 Afghanistan
10 Afghanistan
#  with 6,458 more rows

Example 2: use select to extract entity, year, and prevalence

r code: select(substancedisorder, entity, year, prevalence)

# A tibble: 6,468 x 3
   entity       year prevalence
   <chr>       <int>      <dbl>
 1 Afghanistan  1990       17.6
 2 Afghanistan  1991       17.8
 3 Afghanistan  1992       18.1
 4 Afghanistan  1993       18.3
 5 Afghanistan  1994       18.4
 6 Afghanistan  1995       18.5
 7 Afghanistan  1996       18.5
 8 Afghanistan  1997       18.5
 9 Afghanistan  1998       18.4
10 Afghanistan  1999       18.4
#  with 6,458 more rows

There are lots of other helper functions we can use with the select() argument. This helps us to selects lots of columns that might have the same suffix or prefix (in addition to many other options).

Example 3: Using contains() helper function

r code: select(substancedisorder, contains("n"))

# A tibble: 6,468 x 2
   entity      prevalence
   <chr>            <dbl>
 1 Afghanistan       17.6
 2 Afghanistan       17.8
 3 Afghanistan       18.1
 4 Afghanistan       18.3
 5 Afghanistan       18.4
 6 Afghanistan       18.5
 7 Afghanistan       18.5
 8 Afghanistan       18.5
 9 Afghanistan       18.4
10 Afghanistan       18.4
#  with 6,458 more rows

This only selected columns entity and prevalence since those were the only two columns with an n in their name! If we had two columns that both started with the suffix pre we could have used the helper starts_with() inside of the select argument.

Takeaway: We can select whatever columns we want, in many different ways to make our lives easier!

Now we are going to learn how to use the filter() argument to extract rows of data and turn them into a new data-frame. r template: filter(data-frame, column-name == "variable-name") One important thing to note in the filter argument is the double equal sign. Another important thing to notice is that filter extracts rows of an existing data-frame and returns them as a new data-frame.

Example 4: Filtering rows where entity = Albania

r code: filter(substancedisorder, entity == "Albania")

# A tibble: 28 x 4
   entity  code   year prevalence
   <chr>   <chr> <int>      <dbl>
 1 Albania ALB    1990       11.0
 2 Albania ALB    1991       11.0
 3 Albania ALB    1992       11.0
 4 Albania ALB    1993       11.1
 5 Albania ALB    1994       11.1
 6 Albania ALB    1995       11.1
 7 Albania ALB    1996       11.1
 8 Albania ALB    1997       11.1
 9 Albania ALB    1998       11.1
10 Albania ALB    1999       11.1
#  with 18 more rows
…
Some common mistakes that you want to be sure to avoid are:

Missing the double equal sign,

Mis-using quotation marks

Now, we are going to learn how to use the arrange() function. arrange() reorders the way your rows are set up r template: arrange(data-frame, column-name(s))

Note: you can arrange by a single column name or by multiple columns.

Example 6: arranging substancedisorder by year:

r code: arrange(substancedisorder, year)

# A tibble: 6,468 x 4
   entity               code   year prevalence
   <chr>                <chr> <int>      <dbl>
 1 Afghanistan          AFG    1990       17.6
 2 Albania              ALB    1990       11.0
 3 Algeria              DZA    1990       14.7
 4 American Samoa       ASM    1990       10.8
 5 Andean Latin America <NA>   1990       12.3
 6 Andorra              AND    1990       14.7
 7 Angola               AGO    1990       12.5
 8 Antigua and Barbuda  ATG    1990       13.2
 9 Argentina            ARG    1990       15.5
10 Armenia              ARM    1990       10.6
#  with 6,458 more rows

Note: R automatically arranged the column year in ascending order. Looks what happens when we arrange by code.

r code: arrange(substancedisorder, code)

# A tibble: 6,468 x 4
   entity      code   year prevalence
   <chr>       <chr> <int>      <dbl>
 1 Afghanistan AFG    1990       17.6
 2 Afghanistan AFG    1991       17.8
 3 Afghanistan AFG    1992       18.1
 4 Afghanistan AFG    1993       18.3
 5 Afghanistan AFG    1994       18.4
 6 Afghanistan AFG    1995       18.5
 7 Afghanistan AFG    1996       18.5
 8 Afghanistan AFG    1997       18.5
 9 Afghanistan AFG    1998       18.4
10 Afghanistan AFG    1999       18.4
#  with 6,458 more rows

R automatically arranged the column code in alphabetical order.

Example 7: Lets to arrange substance disorder by both year and prevalence

r code: arrange(substancedisorder, year, prevalence)

# A tibble: 6,468 x 4
   entity                code   year prevalence
   <chr>                 <chr> <int>      <dbl>
 1 Colombia              COL    1990       10.1
 2 Mexico                MEX    1990       10.4
 3 Central Latin America <NA>   1990       10.5
 4 Azerbaijan            AZE    1990       10.5
 5 Honduras              HND    1990       10.5
 6 Tajikistan            TJK    1990       10.6
 7 Armenia               ARM    1990       10.6
 8 Panama                PAN    1990       10.7
 9 Nicaragua             NIC    1990       10.7
10 Georgia               GEO    1990       10.8
#  with 6,458 more rows

R first arranged the column year in ascending order and then arranced prevalence within year.

Note: the order you put the column names matters. The column name you put first will be how your data-frame gets primarily arranged by. Lets see what it looks like if we arrange by prevalence and then year.

r code: arrange(substancedisorder, prevalence, year)

# A tibble: 6,468 x 4
   entity  code   year prevalence
   <chr>   <chr> <int>      <dbl>
 1 Vietnam VNM    2016       9.72
 2 Vietnam VNM    2017       9.72
 3 Vietnam VNM    2015       9.73
 4 Vietnam VNM    2014       9.74
 5 Vietnam VNM    2013       9.75
 6 Vietnam VNM    2012       9.78
 7 Vietnam VNM    2011       9.80
 8 Vietnam VNM    2010       9.83
 9 Vietnam VNM    2009       9.86
10 Vietnam VNM    2008       9.90
#  with 6,458 more rows

As you can see, by simple changing the order of year and prevalence, we get two very different looking data-frames.

Like I said before, R automatically arranges in ascending order, however, we can change that by using the desc() argument for a column name.

Example 8: Sort the table first by descending prevalence and then by year:

r code: arrange(substancedisorder, desc(prevalence), year)

# A tibble: 6,468 x 4
   entity      code   year prevalence
   <chr>       <chr> <int>      <dbl>
 1 New Zealand NZL    2005       19.1
 2 New Zealand NZL    2004       19.1
 3 New Zealand NZL    2003       19.1
 4 New Zealand NZL    2002       19.1
 5 New Zealand NZL    2006       19.1
 6 New Zealand NZL    2001       19.1
 7 New Zealand NZL    2000       19.0
 8 New Zealand NZL    1999       19.0
 9 New Zealand NZL    2007       19.0
10 New Zealand NZL    1998       19.0
#  with 6,458 more rows

By doing this, we get the highest prevalence rates first, and then we get the corresponding years.

The last thing I want to cover in this section is using a pipe operator which is symbolized in R as %>%. The pipe operator is like saying then if we were writing a sentence. So, for example, we can tell R to select a column THEN filter a row THEN arrange that row.

Example 9: Lets combine select, filter, and arrange by using the pipe operator to select the columns entity, year, and prevalence then filter the row prevalence to include variables higher than 15, then arrange prevalence in descending order.

# A tibble: 1,000 x 3
   entity       year prevalence
   <chr>       <int>      <dbl>
 1 New Zealand  2005       19.1
 2 New Zealand  2004       19.1
 3 New Zealand  2003       19.1
 4 New Zealand  2002       19.1
 5 New Zealand  2006       19.1
 6 New Zealand  2001       19.1
 7 New Zealand  2000       19.0
 8 New Zealand  1999       19.0
 9 New Zealand  2007       19.0
10 New Zealand  1998       19.0
#  with 990 more rows
…
Function 1: gather()

r template: gather(data-frame, old_column1 = "new_column1", old_column2 = "new_column2") For example, lets say our substancedisorder table had prevalence split up across two columns with n observations in each cell. This would be an example of untidy data. To fix that issue, we could do the following:

r example code: gather(substancedisorder, key = "prevalence", value = "number of observations", 2, 3) Doing this would gather the values that were the previous prevalence headers and move them into one column, and then make a new column for number of observations. Note: The 2,3 after making the number of observations column tells R how many columns we are collapsing into one.

Function 2: spread()

r template: spread(data-frame, key = name of key variable, value = name of value variable)

The key varible is the variable that stores multiple variables  for example, in our data substancedisorder, the key variable is year. The value variable is the variable containing the actual value being measure. In our data, the value variable is prevalence. The point of the spread() function here is to spread the variables in the key column across their own separate columns.

Example using spread() r code: spread(substancedisorder, key = year, value = prevalence)

# A tibble: 231 x 30
   entity       code  `1990` `1991` `1992` `1993` `1994` `1995` `1996`
   <chr>        <chr>  <dbl>  <dbl>  <dbl>  <dbl>  <dbl>  <dbl>  <dbl>
 1 Afghanistan  AFG     17.6   17.8   18.1   18.3   18.4   18.5   18.5
 2 Albania      ALB     11.0   11.0   11.0   11.1   11.1   11.1   11.1
 3 Algeria      DZA     14.7   14.7   14.7   14.7   14.7   14.7   14.7
 4 American Sa ASM     10.8   10.8   10.8   10.8   10.8   10.8   10.8
 5 Andean Lati <NA>    12.3   12.4   12.4   12.4   12.4   12.4   12.4
 6 Andorra      AND     14.7   14.7   14.7   14.7   14.7   14.7   14.7
 7 Angola       AGO     12.5   12.5   12.5   12.5   12.5   12.5   12.5
 8 Antigua and ATG     13.2   13.2   13.1   13.1   13.1   13.2   13.2
 9 Argentina    ARG     15.5   15.5   15.5   15.5   15.6   15.6   15.6
10 Armenia      ARM     10.6   10.7   10.7   10.7   10.7   10.7   10.7
#  with 221 more rows, and 21 more variables: 1997 <dbl>,
#   1998 <dbl>, 1999 <dbl>, 2000 <dbl>, 2001 <dbl>, 2002 <dbl>,
#   2003 <dbl>, 2004 <dbl>, 2005 <dbl>, 2006 <dbl>, 2007 <dbl>,
#   2008 <dbl>, 2009 <dbl>, 2010 <dbl>, 2011 <dbl>, 2012 <dbl>,
#   2013 <dbl>, 2014 <dbl>, 2015 <dbl>, 2016 <dbl>, 2017 <dbl>
…
r template code: table1 %>% bind_rows(table2)

Often times, there will be situations where you will have duplicate observations when we combine two tables. The way around this issue is to take advantage of the union() function. The union function combines each row that appears in both of the data-sets, but it conveniently removes any duplicate copies.

r template: table1 %>% union(table2)

Easy, and convenient!

Creating Graphical Displays

One of the most important tools in an exploratory analysis is creating graphical displays and visualizations of your data. This helps you to notice any trends, areas of concerns, and to make predictions/hypotheses. In R, one of the most helpful packages for creating these visualizations is ggplot2. Conveniently, ggplot2 is another package that is part of the tidyverse!

Lets look at a data set that shows the share of the population with depression.

# A tibble: 6,468 x 4
   entity    code   year `Prevalence - Depressive disorders - Sex: Bo
   <chr>     <chr> <int>                                         <dbl>
 1 Afghanis AFG    1990                                          4.07
 2 Afghanis AFG    1991                                          4.08
 3 Afghanis AFG    1992                                          4.09
 4 Afghanis AFG    1993                                          4.10
 5 Afghanis AFG    1994                                          4.10
 6 Afghanis AFG    1995                                          4.10
 7 Afghanis AFG    1996                                          4.11
 8 Afghanis AFG    1997                                          4.11
 9 Afghanis AFG    1998                                          4.11
10 Afghanis AFG    1999                                          4.12
#  with 6,458 more rows
…
